{
    "datos": {
        "datosUsuario": {
            "codigoTaquilla": "06",
            "nombrePuntoVenta": "C. DE APUESTA DARIOSCAR",
            "tiempoSesion": 30000,
            "tiempoModal": 30,
            "tipoUsuario": 20,
            "tokenUsuario": "E9234EBCFEA04D889C593C82718414A9",
            "columnaTicket": 30
        },
        "listaMenu": [
            {
                "codMenu": 129,
                "codPadre": 126,
                "desMenu": "ANULAR TICKET",
                "icoMenu": "cil-ban",
                "urlMenu": "anular-ticket"
            },
            {
                "codMenu": 122,
                "codPadre": 0,
                "desMenu": "VENTAS",
                "icoMenu": "cil-bar-chart",
                "urlMenu": "dashboard"
            },
            {
                "codMenu": 123,
                "codPadre": 122,
                "desMenu": "LOTERIA",
                "icoMenu": "cic-lotto",
                "urlMenu": "loteria"
            },
            {
                "codMenu": 126,
                "codPadre": 122,
                "desMenu": "OPERACIONES",
                "icoMenu": "cic-lotto",
                "urlMenu": "operaciones"
            },
            {
                "codMenu": 127,
                "codPadre": 125,
                "desMenu": "REPORTE CUADRE DE CAJA",
                "icoMenu": "cil-print",
                "urlMenu": "reporte-cuadre-caja"
            },
            {
                "codMenu": 128,
                "codPadre": 125,
                "desMenu": "REPORTE LIQUIDACION",
                "icoMenu": "cil-print",
                "urlMenu": "reporte-liquidacion"
            },
            {
                "codMenu": 125,
                "codPadre": 122,
                "desMenu": "REPORTES",
                "icoMenu": "cic-lotto",
                "urlMenu": "reportes"
            }
        ]
    },
    "mensaje": {
        "code": "000",
        "description": "Respuesta Exitosa"
    }
}